br/com/drogaria/domain/Fabricante.class
br/com/drogaria/domain/Funcionario.class
br/com/drogaria/domain/Pessoa.class
br/com/drogaria/domain/GenericDomain.class
br/com/drogaria/domain/Cliente.class
br/com/drogaria/domain/Estado.class
.netbeans_automatic_build
br/com/drogaria/domain/Produto.class
br/com/drogaria/util/HibernateUtil.class
br/com/drogaria/domain/Cidade.class
